Visualising Tour De France Data In R
…
They’re going pretty fast. It looks like while the race has been getting gradually shorter, the speeds have been getting much faster. The change also coincides with professionalisation of the sport, better equipment and smarter training so it’s hard to provide an exact account for the change in speed. It’s worth highlighting the top two fastest average speeds in Tour de France history:Top 5 average speeds of Tour de France winners

editions %>%
  mutate(speed = distance / time_overall) %>%
  select(start_date, winner_name, speed) %>%
  arrange(desc(speed)) %>%
  print(n = 2)

## # A tibble: 106 x 3
##   start_date winner_name     speed
##   <date>     <chr>           <dbl>
## 1 1998-07-11 Marco Pantani    41.7
## 2 2005-07-02 Lance Armstrong  41.7
## # … with 104 more rows
…
It’s pretty clear that over time, the trend has been towards winners having lower BMI, and likely being leaner overall. Apart from the obvious issues with BMI as a metric (body shapes are more complex than just height and weight) it’s interesting to consider why this trend has occurred. It’s tempting to conclude that more careful dieting and preparation in recent years has lead to riders having lower body fat percentages, which can enhance a rider’s power to weight ratio and overall performance. However, it could also be due to changes in the race: if race winning becomes more dependent on performance in the mountains (for example, because the number of mountain stages has increased overall) this could result in the lighter and leaner athletes tending to excel overall.Stage results
The column stage_results contains the breakdown of results by stage for each edition of the Tour de France. For example, the results of the final stage of the 2019 Tour de France can be printed using
editions$stage_results$`2019`$`stage-21`
## # A tibble: 155 x 8
##     rank time     rider         bib_number   age team            points elapsed 
##    <int> <Period> <chr>              <int> <int> <chr>            <int> <Period>
##  1     1 3H 4M 8S Ewan Caleb           161    25 Lotto Soudal       100 3H 4M 8S
##  2     2 0S       Groenewegen …         84    26 Team Jumbo-Vis…     70 3H 4M 8S
##  3     3 0S       Bonifazio Ni…        172    25 Team Total Dir…     50 3H 4M 8S
##  4     4 0S       Richeze Maxi…         27    36 Deceuninck - Q…     40 3H 4M 8S
##  5     5 0S       Boasson Hage…        201    32 Team Dimension…     32 3H 4M 8S
##  6     6 0S       Greipel André        215    37 Team Arkéa Sam…     26 3H 4M 8S
##  7     7 0S       Trentin Matt…        107    29 Mitchelton-Sco…     22 3H 4M 8S
##  8     8 0S       Stuyven Jasp…        138    27 Trek - Segafre…     18 3H 4M 8S
##  9     9 0S       Arndt Nikias         142    27 Team Sunweb         14 3H 4M 8S
## 10    10 0S       Sagan Peter           11    29 BORA - hansgro…     10 3H 4M 8S
## # … with 145 more rows
…
